1099630592
2130473040
1927929736
491852568
2117060736
360955208
1665838856
1736596320
573079552
322624160
985082120
412821768
753178752
2006005080
2023669128
806022928
500402176
1106658928
477161608
759245944
1952764032
1910084328
631058952
263023680
805830656
111848384
328412680
1455375720
1345106048
2144939512
1707244680
31873776
1413646336
1557447312
463128968
278027224
1001994368
487399048
881577224
36897568
100696064
1072825056
805653256
1446516680
847784064
1156791448
225907592
202468560
1086326784
729851056
1280377480
590274872
806879360
1930043432
1812135944
453009408
0
452960256
1811742728
1928716328
803733632
584130872
1269760648
712991920
1061160960
166636752
176755592
1091370136
762849408
1338529736
670780168
906937056
2046853120
1942897440
594922760
150265480
608778368
1970314200
2087242120
959414928
734169088
1411357424
843349128
1177480696
266121344
256607592
1148792328
795044800
1342701568
644131904
846672392
1950175976
1807011968
417033336
2075060360
338495088
1649641472
1713385232
529579400
245560664
861182080
228813064
495790344
1661967008
1579712512
248879968
1964289800
283344200
1648347264
1764184856
630710152
395259984
1057687552
470362416
780621448
1988317880
1945821312
652985000
257145864
758157184
8388608
155177088
1198375944
990354856
1678450816
1115033528
1447440008
528039984
504170496
1375684944
994953096
1509312024
771131520
927748680
1979016968
1777306208
322469888
1909328800
95285512
1322644488
1296291968
16081496
1776833928
135951888
1535739904
1681084272
571838600
355340152
1031442560
452515816
765897224
1971440448
1921515520
615976128
202159624
679919720
2049110144
14617336
1018745992
766382576
1404864512
786561936
1058812296
73985752
2126903424
774968200
313001224
740856352
2058387456
2117964768
919442184
610157256
1189963904
511232408
721300360
1820021712
1659766784
240389552
1856711304
66135096
1310965888
1296090408
21362696
1781604096
134217728
1521508608
1648363528
514636584
267665536
907304504
285923976
550861744
1701971968
1591625168
219675528
1880944536
132835456
1417653448
1440285448
200585696
1993375744
376058912
1790940424
1942907272
831813760
604997848
1262313864
656132496
933791744
2095145968
1992565896
625905912
142504064
542214760
1824892424
1842907840
596115456
231853376
749976072
2854376
137826432
1154746744
905986184
1538882928
905807872
1154099216
136127880
2146715736
743266432
220601864
578576648
1817045408
1788379136
492432480
76543752
540567624
1884358784
1960288280
768210824
455464784
1021904896
319902256
496795272
1552438712
1339203712
2004428712
1400484872
1674710656
679477248
562123136
1322503176
812988584
1180917888
278662328
253560456
1105467184
686753792
1144758864
331853704
395376920
1335183488
1003644744
1548099336
820918624
969441280
1993522336
1745533192
225328904
1727731840
1957629784
914877832
746814736
1453295616
886691952
1194342536
228618872
136859776
918920424
427172360
808954432
2064121856
2045046208
751582728
331070312
783364224
2108319736
10824840
933185776
580290560
1099478160
343120264
458555864
1445640320
1156745352
1739209992
1045405984
1222672384
123380960
2042354440
536997320
2049616000
137615000
1243300744
1071561424
1769736192
1190196912
1480282760
492365624
373784704
1124395560
596570120
937647616
0
2078450176
730402824
250680872
639139968
1895635768
1872540296
569709232
134481920
566714064
1866261384
1885495960
624273536
229933512
702331656
2041323744
2099281920
876061984
519003400
1027961992
255309952
348386776
1307048328
983666832
1525581824
785165552
909757576
1899213816
1605906560
29691752
1465392648
1617897920
487063552
220229184
817250824
130500840
307318912
1347561080
1103599752
1722774640
1057458176
1254990096
167742856
2090539864
580786304
2080789256
147953928
1224587424
1015578624
1668267360
1035026184
1263194952
205146240
8219928
672272264
49675856
287770624
1386412848
1197975176
1869797560
1254252672
1498680488
455453704
271912320
947912704
335827584
582997000
1689277352
1507041408
36145592
1571413640
1817734704
774965248
590445392
1264031624
648096792
889981056
1989540936
1799149320
318662752
1842905088
2076765600
1020100872
820251144
1477073024
842939480
1065190792
2143683600
1930790912
426369392
1925243016
2132301176
1047400576
817881576
1443600904
776931648
965214208
2008305344
1758578184
215889512
1675063424
1840989432
713524360
440008688
1020299264
306769296
446759304
1440126168
1139243136
1691450760
949122312
1059598368
2022735872
1690908128
63972104
1436752072
1514137728
295986072
2077121416
414949840
1751779328
1792499632
536967816
132524600
579027072
1876332328
1876813832
580328704
134217728
538338048
1792546824
1749217576
408207488
2064341048
275024520
1482566064
1391855616
2750416
1610075016
1918719384
928540800
786880200
1493594888
901058528
1156612096
112629280
2063934728
567934856
2066937984
118350552
1164480904
910219152
1502906368
794916336
933590152
1918785272
1602875520
2133202024
1362138632
1437026496
210239488
1976602432
293521928
1603306472
1610846336
315999096
2013589640
261024624
1500612608
1437243920
70776200
1696034392
2017908864
1036257288
898421000
1604257696
1006141440
1251413600
192448264
2124070472
603687040
2073606680
91236232
1098884432
801441792
1346249776
585682568
667081656
1590304896
1207726504
1666688008
819563648
813694976
1648939904
1177672712
1547234984
610001024
513312440
1257027208
693519664
970131456
2086720592
1895661448
396812056
1884997760
2065109320
937004808
648025952
1198030848
439393952
519457032
1438078216
1047632000
1495460184
633937288
610405136
1424721920
929262192
1271367816
303413368
172740736
879208168
275190280
508028992
1577582592
1336225728
1931300360
1215181160
1335210112
143761912
1935662216
268318448
1584039936
1587717776
279210376
1953343448
167524480
1364062856
1247849736
1966227232
1371570176
1611220704
537553672
297911240
892151936
172650648
286749576
1234307280
867698688
1334266032
486384264
471395640
1289158784
792048680
1127407624
147610624
0
684434432
53288968
253905960
1286144128
1002378552
1549951624
781238448
843581440
1736839376
1313387400
1720567960
810756224
731294664
1482042120
915373792
1178632192
124192544
2046881032
504105608
1938176128
2053984216
851388808
477732496
932874240
69189360
34020488
827226616
301183104
603232616
1733234184
1543563200
34078720
1499607104
1645040136
470236904
122540160
601809016
1907902600
1893196400
557549568
48304912
365321608
1508458840
1330092160
1977564424
1303251208
1454495392
283672576
2085609312
417713928
1722296648
1704249472
363431704
1994669960
155372624
1287849984
1096994096
1730147976
1039687352
1172955264
2129811112
1762630664
71273344
1350565888
1305400448
2083120136
1536100776
1811685504
762250168
535137928
1130208304
399837184
491367760
1404659592
992088600
1400998016
483763784
387729160
1112753760
511213568
730451872
1770328328
1483218952
2016467072
1222448728
1248507272
2094502416
1612810240
1950774128
960770184
790141816
1438748800
758967272
898140680
1856128832
1485307904
1933021376
1051645448
988523624
1743515776
1168998136
1412314248
325840368
56920064
605413264
1971179912
2006596312
711522432
233301896
571794696
1726860832
1550876672
43702240
1500164872
1625157320
418539648
27655576
452365192
1692528592
1600522240
176206256
1714408072
1920020536
792903808
480401704
982374408
151198464
134217728
931292416
394799112
672081704
1763000448
1519931960
2090220168
1326241712
1375340544
89893328
1764727688
2104736664
1109780608
927203528
1556865800
851144160
957382656
1875441696
1457698056
1851495816
909211776
778190040
1458291080
801891728
956336128
1921484784
1549714568
1988369656
1089826944
1001430632
1723041288
1107035840
1300758528
156586304
1969347080
296450536
1580208256
1525513592
132227208
1695177072
1919256576
804326416
497730952
999330904
161503360
131592712
909459720
347481504
593002496
1645883488
1358501640
1878201416
1057360000
1043321880
1835947912
1287615312
1545668608
462485040
185409160
714301880
2049024128
2041953192
692950024
149359232
411041792
1477858688
1202187272
1731372200
917790848
908787896
1704224392
1156477744
1412892672
325846608
42684296
563266840
1887455360
1867627336
503643912
2090333536
185106432
1230274720
930732296
1433824008
591927424
552387416
1315065224
732338448
951552000
1972567152
1647761544
2124480120
1255100544
1186967784
1919943176
1306404416
1493696512
334197184
2122735112
416720744
1658466432
1552866296
99781768
1594041584
1740539904
539138192
137181576
534531544
1731049600
1579113608
78585096
1524292896
1621131264
368961760
2062613256
259496392
1401923712
1194789528
1785439112
1026250448
1064568832
1900255920
1385689736
1668215608
600211584
329023016
854511624
29055488
0
767206912
183054344
394887720
1402568832
1058475832
1509954184
609382064
504104960
1193984720
531399560
663695000
1590732928
1164891592
1533516552
548986080
358645760
962357536
212499720
256417928
1093974144
577546712
854481288
1924639888
1640400896
1626352
1303145608
1249853432
1989095552
1373250408
1549663752
370714048
2131230720
388624960
1585209864
1425880296
2057982080
1333893752
1400961160
111562864
1760528384
2052752656
988097928
713910104
1230051456
388900616
337803528
1076622496
457736192
628490592
1588748040
1190887240
1582254208
615227672
437153672
1047894608
299829248
340303664
1169180296
638837944
896622720
1942397096
1628539912
2102397312
1216348160
1117738624
1806431240
1134804904
1250205824
5012920
1694056072
2022230576
989399040
742907728
1282619272
460912664
425134208
1175146568
563328776
737027168
1696104448
1292939680
1674879240
694302216
498555008
1087500376
313517448
323952656
1118668800
550045040
765427848
1764680056
1400180864
1819276776
874347016
712738112
1334312960
591450816
631498248
1454318184
912289920
1152760056
28107912
1833163760
125339648
1346949520
1202889096
1840505048
1112176768
1165250952
1999590664
1467575328
1716551680
598899168
261964552
705610952
1929701504
1786615704
276216712
1693334992
1742866432
424674224
2033588872
127022648
1147289728
799286056
1230358536
292886784
134217728
754214656
5257224
34692392
842383488
280710200
497019528
1491174832
1115555840
1517509584
549415816
358621592
944990336
160901832
153703176
923257824
321945600
497113632
1448625416
1028860808
1385166976
369923800
130478472
666694544
1978435584
1918081520
485495944
1975509752
2093019264
837888104
357463560
651609280
1720188928
1415582528
1885137416
981233640
851218560
1494955896
764825736
808175472
1624868864
1067286032
1282774408
123714136
1884936320
123853832
1282781448
